…
```r
new
```

```
## # A tibble: 180 x 88
## # Groups:   actividad [6]
##    actividad sujeto `tBodyAcc-mean(~ `tBodyAcc-mean(~ `tBodyAcc-mean(~
##    <fct>      <int>            <dbl>            <dbl>            <dbl>
##  1 Walking        1            0.277          -0.0174           -0.111
##  2 Walking        2            0.276          -0.0186           -0.106
##  3 Walking        3            0.276          -0.0172           -0.113
##  4 Walking        4            0.279          -0.0148           -0.111
##  5 Walking        5            0.278          -0.0173           -0.108
##  6 Walking        6            0.284          -0.0169           -0.110
##  7 Walking        7            0.276          -0.0187           -0.111
##  8 Walking        8            0.275          -0.0187           -0.107
##  9 Walking        9            0.279          -0.0181           -0.111
## 10 Walking       10            0.279          -0.0170           -0.109
## # ... with 170 more rows, and 83 more variables: `tGravityAcc-mean()-X` <dbl>,
## #   `tGravityAcc-mean()-Y` <dbl>, `tGravityAcc-mean()-Z` <dbl>,
## #   `tBodyAccJerk-mean()-X` <dbl>, `tBodyAccJerk-mean()-Y` <dbl>,
## #   `tBodyAccJerk-mean()-Z` <dbl>, `tBodyGyro-mean()-X` <dbl>,
## #   `tBodyGyro-mean()-Y` <dbl>, `tBodyGyro-mean()-Z` <dbl>,
## #   `tBodyGyroJerk-mean()-X` <dbl>, `tBodyGyroJerk-mean()-Y` <dbl>,
## #   `tBodyGyroJerk-mean()-Z` <dbl>, `tBodyAccMag-mean()` <dbl>,
## #   `tGravityAccMag-mean()` <dbl>, `tBodyAccJerkMag-mean()` <dbl>,
## #   `tBodyGyroMag-mean()` <dbl>, `tBodyGyroJerkMag-mean()` <dbl>,
…
